%YAML 1.1
%TAG !u! tag:unity3d.com,2011:
--- !u!159 &1
EditorSettings:
  m_ObjectHideFlags: 0
  serializedVersion: 7
  m_ExternalVersionControlSupport: Visible Meta Files
  m_SerializationMode: 2
  m_LineEndingsForNewScripts: 0
  m_DefaultBehaviorMode: 1
  m_SpritePackerMode: 1
  m_SpritePackerPaddingPower: 1
  m_EtcTextureCompressorBehavior: 0
  m_EtcTextureFastCompressor: 2
  m_EtcTextureNormalCompressor: 2
  m_EtcTextureBestCompressor: 5
  m_ProjectGenerationIncludedExtensions: txt;xml;fnt;cd
  m_ProjectGenerationRootNamespace: 
  m_UserGeneratedProjectSuffix: 
  m_CollabEditorSettings:
    inProgressEnabled: 1
